{
    "TierWeights": {
        "0": 0.25,
        "1": 1,
        "2": 2,
        "3": 1
    },
    "TechWeightsWeapon": {
        "VANILLA_TECH": 1,
        "CITADEL": 1,
        "IMPERIUM": 1.25,
        "SHADOW": 1,
        "TIANDONG": 1
    },
    "MasterWeaponScale": 1.01,
    "TechWeightsFighter": {
        "LOW_TECH": 1,
        "MIDLINE": 1,
        "HIGH_TECH": 1,
        "IMPERIUM": 1,
        "SHADOW": 1
    },
    "MasterFighterScale": 4.01,
    "FactionID": "interstellarimperium"
}