{
    "TierWeights": {
        "0": 0.1,
        "1": 0.5,
        "2": 1,
        "3": 1
    },
    "TechWeightsWeapon": {
        "VANILLA_TECH": 1,
        "TIANDONG": 1
    },
    "MasterWeaponScale": 0.99,
    "TechWeightsFighter": {
        "LOW_TECH": 1,
        "MIDLINE": 1.5,
        "HIGH_TECH": 0.75,
        "REMNANT": 0.75
    },
    "MasterFighterScale": 8.04,
    "FactionID": "lions_guard"
}