{
    "TierWeights": {
        "0": 0.1,
        "1": 0.5,
        "2": 1,
        "3": 1.5
    },
    "TechWeightsWeapon": {
        "VANILLA_TECH": 1,
        "TIANDONG": 0.5
    },
    "MasterWeaponScale": 1.31,
    "TechWeightsFighter": {
        "REMNANT": 1
    },
    "MasterFighterScale": 33.33,
    "FactionID": "remnant"
}