{
    "TierWeights": {
        "0": 0.1,
        "1": 0.5,
        "2": 1,
        "3": 1.5
    },
    "TechWeightsWeapon": {
        "VANILLA_TECH": 1,
        "ORA": 1
    },
    "MasterWeaponScale": 1.08,
    "TechWeightsFighter": {
        "LOW_TECH": 1,
        "MIDLINE": 1,
        "HIGH_TECH": 1,
        "REMNANT": 1,
        "ORA": 1
    },
    "MasterFighterScale": 6.18,
    "FactionID": "tritachyon"
}